{"tracks": {"href": "https://api.spotify.com/v1/search?query=Radiohead&type=track&offset=0&limit=10", "offset": 0, "items": [{"explicit": true, "external_urls": {"spotify": "https://open.spotify.com/track/6b2oQwSGFkzsMtQruIWm2p"}, "disc_number": 1, "is_local": false, "available_markets": ["AD", "AR", "AT", "AU", "BE", "BG", "BO", "BR", "CA", "CH", "CL", "CO", "CR", "CY", "CZ", "DE", "DK", "DO", "EC", "EE", "ES", "FI", "FR", "GB", "GR", "GT", "HK", "HN", "HU", "ID", "IE", "IL", "IS", "IT", "JP", "LI", "LT", "LU", "LV", "MC", "MT", "MX", "MY", "NI", "NL", "NO", "NZ", "PA", "PE", "PH", "PL", "PT", "PY", "RO", "SE", "SG", "SK", "SV", "TH", "TR", "TW", "US", "UY", "VN", "ZA"], "uri": "spotify:track:6b2oQwSGFkzsMtQruIWm2p", "href": "https://api.spotify.com/v1/tracks/6b2oQwSGFkzsMtQruIWm2p", "name": "Creep", "id": "6b2oQwSGFkzsMtQruIWm2p", "artists": [{"external_urls": {"spotify": "https://open.spotify.com/artist/4Z8W4fKeB5YxbusRsdQVPb"}, "uri": "spotify:artist:4Z8W4fKeB5YxbusRsdQVPb", "href": "https://api.spotify.com/v1/artists/4Z8W4fKeB5YxbusRsdQVPb", "name": "Radiohead", "id": "4Z8W4fKeB5YxbusRsdQVPb", "type": "artist"}], "album": {"external_urls": {"spotify": "https://open.spotify.com/album/6400dnyeDyD2mIFHfkwHXN"}, "total_tracks": 12, "available_markets": ["AD", "AR", "AT", "AU", "BE", "BG", "BO", "BR", "CA", "CH", "CL", "CO", "CR", "CY", "CZ", "DE", "DK", "DO", "EC", "EE", "ES", "FI", "FR", "GB", "GR", "GT", "HK", "HN", "HU", "ID", "IE", "IL", "IS", "IT", "JP", "LI", "LT", "LU", "LV", "MC", "MT", "MX", "MY", "NI", "NL", "NO", "NZ", "PA", "PE", "PH", "PL", "PT", "PY", "RO", "SE", "SG", "SK", "SV", "TH", "TR", "TW", "US", "UY", "VN", "ZA"], "uri": "spotify:album:6400dnyeDyD2mIFHfkwHXN", "href": "https://api.spotify.com/v1/albums/6400dnyeDyD2mIFHfkwHXN", "name": "Pablo Honey", "id": "6400dnyeDyD2mIFHfkwHXN", "artists": [{"external_urls": {"spotify": "https://open.spotify.com/artist/4Z8W4fKeB5YxbusRsdQVPb"}, "uri": "spotify:artist:4Z8W4fKeB5YxbusRsdQVPb", "href": "https://api.spotify.com/v1/artists/4Z8W4fKeB5YxbusRsdQVPb", "name": "Radiohead", "id": "4Z8W4fKeB5YxbusRsdQVPb", "type": "artist"}], "album_type": "album", "release_date_precision": "day", "release_date": "1993-02-22", "images": [{"height": 640, "width": 640, "url": "https://i.scdn.co/image/e17011b2aa33289dfa6c0828a0e40d6b56ad8820"}, {"height": 300, "width": 300, "url": "https://i.scdn.co/image/fe11a648ea61a3c2422c21b3ff8a870a6efbc608"}, {"height": 64, "width": 64, "url": "https://i.scdn.co/image/4b04fa350781271b1af24d804c1badec1f8e63c7"}], "type": "album"}, "duration_ms": 238640, "track_number": 2, "popularity": 79, "external_ids": {"isrc": "GBAYE9200070"}, "preview_url": "https://p.scdn.co/mp3-preview/e7eb60e9466bc3a27299ea8803aadf4fa9cf795c?cid=8cf3536e2878430ba6f2ae0755ddcfcf", "type": "track"}, {"explicit": false, "external_urls": {"spotify": "https://open.spotify.com/track/3SVAN3BRByDmHOhKyIDxfC"}, "disc_number": 1, "is_local": false, "available_markets": ["AD", "AR", "AT", "AU", "BE", "BG", "BO", "BR", "CA", "CH", "CL", "CO", "CR", "CY", "CZ", "DE", "DK", "DO", "EC", "EE", "ES", "FI", "FR", "GB", "GR", "GT", "HK", "HN", "HU", "ID", "IE", "IL", "IS", "IT", "JP", "LI", "LT", "LU", "LV", "MC", "MT", "MX", "MY", "NI", "NL", "NO", "NZ", "PA", "PE", "PH", "PL", "PT", "PY", "RO", "SE", "SG", "SK", "SV", "TH", "TR", "TW", "US", "UY", "VN", "ZA"], "uri": "spotify:track:3SVAN3BRByDmHOhKyIDxfC", "href": "https://api.spotify.com/v1/tracks/3SVAN3BRByDmHOhKyIDxfC", "name": "Karma Police", "id": "3SVAN3BRByDmHOhKyIDxfC", "artists": [{"external_urls": {"spotify": "https://open.spotify.com/artist/4Z8W4fKeB5YxbusRsdQVPb"}, "uri": "spotify:artist:4Z8W4fKeB5YxbusRsdQVPb", "href": "https://api.spotify.com/v1/artists/4Z8W4fKeB5YxbusRsdQVPb", "name": "Radiohead", "id": "4Z8W4fKeB5YxbusRsdQVPb", "type": "artist"}], "album": {"external_urls": {"spotify": "https://open.spotify.com/album/7dxKtc08dYeRVHt3p9CZJn"}, "total_tracks": 12, "available_markets": ["AD", "AR", "AT", "AU", "BE", "BG", "BO", "BR", "CA", "CH", "CL", "CO", "CR", "CY", "CZ", "DE", "DK", "DO", "EC", "EE", "ES", "FI", "FR", "GB", "GR", "GT", "HK", "HN", "HU", "ID", "IE", "IL", "IS", "IT", "JP", "LI", "LT", "LU", "LV", "MC", "MT", "MX", "MY", "NI", "NL", "NO", "NZ", "PA", "PE", "PH", "PL", "PT", "PY", "RO", "SE", "SG", "SK", "SV", "TH", "TR", "TW", "US", "UY", "VN", "ZA"], "uri": "spotify:album:7dxKtc08dYeRVHt3p9CZJn", "href": "https://api.spotify.com/v1/albums/7dxKtc08dYeRVHt3p9CZJn", "name": "OK Computer", "id": "7dxKtc08dYeRVHt3p9CZJn", "artists": [{"external_urls": {"spotify": "https://open.spotify.com/artist/4Z8W4fKeB5YxbusRsdQVPb"}, "uri": "spotify:artist:4Z8W4fKeB5YxbusRsdQVPb", "href": "https://api.spotify.com/v1/artists/4Z8W4fKeB5YxbusRsdQVPb", "name": "Radiohead", "id": "4Z8W4fKeB5YxbusRsdQVPb", "type": "artist"}], "album_type": "album", "release_date_precision": "day", "release_date": "1997-05-28", "images": [{"height": 640, "width": 640, "url": "https://i.scdn.co/image/f89c1ecdd0cc5a23d5ad7303d4ae231d197dde98"}, {"height": 300, "width": 300, "url": "https://i.scdn.co/image/1b898f0b8e3ce499d0fc629a1918c144d982e475"}, {"height": 64, "width": 64, "url": "https://i.scdn.co/image/faf295a70a6531826a8c25d33aad7d2cd9c75c7a"}], "type": "album"}, "duration_ms": 264066, "track_number": 6, "popularity": 71, "external_ids": {"isrc": "GBAYE9701368"}, "preview_url": "https://p.scdn.co/mp3-preview/5a09f5390e2862af1687f3671db3d6f84a813a45?cid=8cf3536e2878430ba6f2ae0755ddcfcf", "type": "track"}, {"explicit": false, "external_urls": {"spotify": "https://open.spotify.com/track/5jafMI8FLibnjkYTZ33m0c"}, "disc_number": 1, "is_local": false, "available_markets": ["AD", "AR", "AT", "AU", "BE", "BG", "BO", "BR", "CA", "CH", "CL", "CO", "CR", "CY", "CZ", "DE", "DK", "DO", "EC", "EE", "ES", "FI", "FR", "GB", "GR", "GT", "HK", "HN", "HU", "ID", "IE", "IL", "IS", "IT", "JP", "LI", "LT", "LU", "LV", "MC", "MT", "MX", "MY", "NI", "NL", "NO", "NZ", "PA", "PE", "PH", "PL", "PT", "PY", "RO", "SE", "SG", "SK", "SV", "TH", "TR", "TW", "US", "UY", "VN", "ZA"], "uri": "spotify:track:5jafMI8FLibnjkYTZ33m0c", "href": "https://api.spotify.com/v1/tracks/5jafMI8FLibnjkYTZ33m0c", "name": "High And Dry", "id": "5jafMI8FLibnjkYTZ33m0c", "artists": [{"external_urls": {"spotify": "https://open.spotify.com/artist/4Z8W4fKeB5YxbusRsdQVPb"}, "uri": "spotify:artist:4Z8W4fKeB5YxbusRsdQVPb", "href": "https://api.spotify.com/v1/artists/4Z8W4fKeB5YxbusRsdQVPb", "name": "Radiohead", "id": "4Z8W4fKeB5YxbusRsdQVPb", "type": "artist"}], "album": {"external_urls": {"spotify": "https://open.spotify.com/album/500FEaUzn8lN9zWFyZG5C2"}, "total_tracks": 12, "available_markets": ["AD", "AR", "AT", "AU", "BE", "BG", "BO", "BR", "CA", "CH", "CL", "CO", "CR", "CY", "CZ", "DE", "DK", "DO", "EC", "EE", "ES", "FI", "FR", "GB", "GR", "GT", "HK", "HN", "HU", "ID", "IE", "IL", "IS", "IT", "JP", "LI", "LT", "LU", "LV", "MC", "MT", "MX", "MY", "NI", "NL", "NO", "NZ", "PA", "PE", "PH", "PL", "PT", "PY", "RO", "SE", "SG", "SK", "SV", "TH", "TR", "TW", "US", "UY", "VN", "ZA"], "uri": "spotify:album:500FEaUzn8lN9zWFyZG5C2", "href": "https://api.spotify.com/v1/albums/500FEaUzn8lN9zWFyZG5C2", "name": "The Bends", "id": "500FEaUzn8lN9zWFyZG5C2", "artists": [{"external_urls": {"spotify": "https://open.spotify.com/artist/4Z8W4fKeB5YxbusRsdQVPb"}, "uri": "spotify:artist:4Z8W4fKeB5YxbusRsdQVPb", "href": "https://api.spotify.com/v1/artists/4Z8W4fKeB5YxbusRsdQVPb", "name": "Radiohead", "id": "4Z8W4fKeB5YxbusRsdQVPb", "type": "artist"}], "album_type": "album", "release_date_precision": "day", "release_date": "1995-03-28", "images": [{"height": 640, "width": 640, "url": "https://i.scdn.co/image/3a75fdf63322a8fdc86951eb836542093872530b"}, {"height": 300, "width": 300, "url": "https://i.scdn.co/image/391c85a80061f2e4cdc35c53d2a9ef86aff2502b"}, {"height": 64, "width": 64, "url": "https://i.scdn.co/image/668e4301cac2485e8a6573686c1b54c476d29f49"}], "type": "album"}, "duration_ms": 257480, "track_number": 3, "popularity": 70, "external_ids": {"isrc": "GBAYE9400055"}, "preview_url": "https://p.scdn.co/mp3-preview/7cc39826315239401b8bac4317c14c35ecdbcd58?cid=8cf3536e2878430ba6f2ae0755ddcfcf", "type": "track"}, {"explicit": false, "external_urls": {"spotify": "https://open.spotify.com/track/045sp2JToyTaaKyXkGejPy"}, "disc_number": 1, "is_local": false, "available_markets": ["AD", "AR", "AT", "AU", "BE", "BG", "BO", "BR", "CA", "CH", "CL", "CO", "CR", "CY", "CZ", "DE", "DK", "DO", "EC", "EE", "ES", "FI", "FR", "GB", "GR", "GT", "HK", "HN", "HU", "ID", "IE", "IL", "IS", "IT", "JP", "LI", "LT", "LU", "LV", "MC", "MT", "MX", "MY", "NI", "NL", "NO", "NZ", "PA", "PE", "PH", "PL", "PT", "PY", "RO", "SE", "SG", "SK", "SV", "TH", "TR", "TW", "US", "UY", "VN", "ZA"], "uri": "spotify:track:045sp2JToyTaaKyXkGejPy", "href": "https://api.spotify.com/v1/tracks/045sp2JToyTaaKyXkGejPy", "name": "Fake Plastic Trees", "id": "045sp2JToyTaaKyXkGejPy", "artists": [{"external_urls": {"spotify": "https://open.spotify.com/artist/4Z8W4fKeB5YxbusRsdQVPb"}, "uri": "spotify:artist:4Z8W4fKeB5YxbusRsdQVPb", "href": "https://api.spotify.com/v1/artists/4Z8W4fKeB5YxbusRsdQVPb", "name": "Radiohead", "id": "4Z8W4fKeB5YxbusRsdQVPb", "type": "artist"}], "album": {"external_urls": {"spotify": "https://open.spotify.com/album/500FEaUzn8lN9zWFyZG5C2"}, "total_tracks": 12, "available_markets": ["AD", "AR", "AT", "AU", "BE", "BG", "BO", "BR", "CA", "CH", "CL", "CO", "CR", "CY", "CZ", "DE", "DK", "DO", "EC", "EE", "ES", "FI", "FR", "GB", "GR", "GT", "HK", "HN", "HU", "ID", "IE", "IL", "IS", "IT", "JP", "LI", "LT", "LU", "LV", "MC", "MT", "MX", "MY", "NI", "NL", "NO", "NZ", "PA", "PE", "PH", "PL", "PT", "PY", "RO", "SE", "SG", "SK", "SV", "TH", "TR", "TW", "US", "UY", "VN", "ZA"], "uri": "spotify:album:500FEaUzn8lN9zWFyZG5C2", "href": "https://api.spotify.com/v1/albums/500FEaUzn8lN9zWFyZG5C2", "name": "The Bends", "id": "500FEaUzn8lN9zWFyZG5C2", "artists": [{"external_urls": {"spotify": "https://open.spotify.com/artist/4Z8W4fKeB5YxbusRsdQVPb"}, "uri": "spotify:artist:4Z8W4fKeB5YxbusRsdQVPb", "href": "https://api.spotify.com/v1/artists/4Z8W4fKeB5YxbusRsdQVPb", "name": "Radiohead", "id": "4Z8W4fKeB5YxbusRsdQVPb", "type": "artist"}], "album_type": "album", "release_date_precision": "day", "release_date": "1995-03-28", "images": [{"height": 640, "width": 640, "url": "https://i.scdn.co/image/3a75fdf63322a8fdc86951eb836542093872530b"}, {"height": 300, "width": 300, "url": "https://i.scdn.co/image/391c85a80061f2e4cdc35c53d2a9ef86aff2502b"}, {"height": 64, "width": 64, "url": "https://i.scdn.co/image/668e4301cac2485e8a6573686c1b54c476d29f49"}], "type": "album"}, "duration_ms": 290706, "track_number": 4, "popularity": 67, "external_ids": {"isrc": "GBAYE9400056"}, "preview_url": "https://p.scdn.co/mp3-preview/9f661dae7578998a5817c65210ff23fbfa1a0c74?cid=8cf3536e2878430ba6f2ae0755ddcfcf", "type": "track"}, {"explicit": false, "external_urls": {"spotify": "https://open.spotify.com/track/1bSpwPhAxZwlR2enJJsv7U"}, "disc_number": 1, "is_local": false, "available_markets": ["AD", "AR", "AT", "AU", "BE", "BG", "BO", "BR", "CA", "CH", "CL", "CO", "CR", "CY", "CZ", "DE", "DK", "DO", "EC", "EE", "ES", "FI", "FR", "GB", "GR", "GT", "HK", "HN", "HU", "ID", "IE", "IL", "IS", "IT", "JP", "LI", "LT", "LU", "LV", "MC", "MT", "MX", "MY", "NI", "NL", "NO", "NZ", "PA", "PE", "PH", "PL", "PT", "PY", "RO", "SE", "SG", "SK", "SV", "TH", "TR", "TW", "US", "UY", "VN", "ZA"], "uri": "spotify:track:1bSpwPhAxZwlR2enJJsv7U", "href": "https://api.spotify.com/v1/tracks/1bSpwPhAxZwlR2enJJsv7U", "name": "No Surprises", "id": "1bSpwPhAxZwlR2enJJsv7U", "artists": [{"external_urls": {"spotify": "https://open.spotify.com/artist/4Z8W4fKeB5YxbusRsdQVPb"}, "uri": "spotify:artist:4Z8W4fKeB5YxbusRsdQVPb", "href": "https://api.spotify.com/v1/artists/4Z8W4fKeB5YxbusRsdQVPb", "name": "Radiohead", "id": "4Z8W4fKeB5YxbusRsdQVPb", "type": "artist"}], "album": {"external_urls": {"spotify": "https://open.spotify.com/album/7dxKtc08dYeRVHt3p9CZJn"}, "total_tracks": 12, "available_markets": ["AD", "AR", "AT", "AU", "BE", "BG", "BO", "BR", "CA", "CH", "CL", "CO", "CR", "CY", "CZ", "DE", "DK", "DO", "EC", "EE", "ES", "FI", "FR", "GB", "GR", "GT", "HK", "HN", "HU", "ID", "IE", "IL", "IS", "IT", "JP", "LI", "LT", "LU", "LV", "MC", "MT", "MX", "MY", "NI", "NL", "NO", "NZ", "PA", "PE", "PH", "PL", "PT", "PY", "RO", "SE", "SG", "SK", "SV", "TH", "TR", "TW", "US", "UY", "VN", "ZA"], "uri": "spotify:album:7dxKtc08dYeRVHt3p9CZJn", "href": "https://api.spotify.com/v1/albums/7dxKtc08dYeRVHt3p9CZJn", "name": "OK Computer", "id": "7dxKtc08dYeRVHt3p9CZJn", "artists": [{"external_urls": {"spotify": "https://open.spotify.com/artist/4Z8W4fKeB5YxbusRsdQVPb"}, "uri": "spotify:artist:4Z8W4fKeB5YxbusRsdQVPb", "href": "https://api.spotify.com/v1/artists/4Z8W4fKeB5YxbusRsdQVPb", "name": "Radiohead", "id": "4Z8W4fKeB5YxbusRsdQVPb", "type": "artist"}], "album_type": "album", "release_date_precision": "day", "release_date": "1997-05-28", "images": [{"height": 640, "width": 640, "url": "https://i.scdn.co/image/f89c1ecdd0cc5a23d5ad7303d4ae231d197dde98"}, {"height": 300, "width": 300, "url": "https://i.scdn.co/image/1b898f0b8e3ce499d0fc629a1918c144d982e475"}, {"height": 64, "width": 64, "url": "https://i.scdn.co/image/faf295a70a6531826a8c25d33aad7d2cd9c75c7a"}], "type": "album"}, "duration_ms": 229120, "track_number": 10, "popularity": 69, "external_ids": {"isrc": "GBAYE9700386"}, "preview_url": "https://p.scdn.co/mp3-preview/de1369604de29117d80cfe277054c5d0d11ef732?cid=8cf3536e2878430ba6f2ae0755ddcfcf", "type": "track"}, {"explicit": false, "external_urls": {"spotify": "https://open.spotify.com/track/4Iyo50UoYhuuYORMLrGDci"}, "disc_number": 1, "is_local": false, "available_markets": ["AD", "AR", "AT", "AU", "BE", "BG", "BO", "BR", "CA", "CH", "CL", "CO", "CR", "CY", "CZ", "DE", "DK", "DO", "EC", "EE", "ES", "FI", "FR", "GB", "GR", "GT", "HK", "HN", "HU", "ID", "IE", "IL", "IS", "IT", "JP", "LI", "LT", "LU", "LV", "MC", "MT", "MX", "MY", "NI", "NL", "NO", "NZ", "PA", "PE", "PH", "PL", "PT", "PY", "RO", "SE", "SG", "SK", "SV", "TH", "TR", "TW", "US", "UY", "VN", "ZA"], "uri": "spotify:track:4Iyo50UoYhuuYORMLrGDci", "href": "https://api.spotify.com/v1/tracks/4Iyo50UoYhuuYORMLrGDci", "name": "Weird Fishes/ Arpeggi", "id": "4Iyo50UoYhuuYORMLrGDci", "artists": [{"external_urls": {"spotify": "https://open.spotify.com/artist/4Z8W4fKeB5YxbusRsdQVPb"}, "uri": "spotify:artist:4Z8W4fKeB5YxbusRsdQVPb", "href": "https://api.spotify.com/v1/artists/4Z8W4fKeB5YxbusRsdQVPb", "name": "Radiohead", "id": "4Z8W4fKeB5YxbusRsdQVPb", "type": "artist"}], "album": {"external_urls": {"spotify": "https://open.spotify.com/album/7eyQXxuf2nGj9d2367Gi5f"}, "total_tracks": 10, "available_markets": ["AD", "AR", "AT", "AU", "BE", "BG", "BO", "BR", "CA", "CH", "CL", "CO", "CR", "CY", "CZ", "DE", "DK", "DO", "EC", "EE", "ES", "FI", "FR", "GB", "GR", "GT", "HK", "HN", "HU", "ID", "IE", "IL", "IS", "IT", "JP", "LI", "LT", "LU", "LV", "MC", "MT", "MX", "MY", "NI", "NL", "NO", "NZ", "PA", "PE", "PH", "PL", "PT", "PY", "RO", "SE", "SG", "SK", "SV", "TH", "TR", "TW", "US", "UY", "VN", "ZA"], "uri": "spotify:album:7eyQXxuf2nGj9d2367Gi5f", "href": "https://api.spotify.com/v1/albums/7eyQXxuf2nGj9d2367Gi5f", "name": "In Rainbows", "id": "7eyQXxuf2nGj9d2367Gi5f", "artists": [{"external_urls": {"spotify": "https://open.spotify.com/artist/4Z8W4fKeB5YxbusRsdQVPb"}, "uri": "spotify:artist:4Z8W4fKeB5YxbusRsdQVPb", "href": "https://api.spotify.com/v1/artists/4Z8W4fKeB5YxbusRsdQVPb", "name": "Radiohead", "id": "4Z8W4fKeB5YxbusRsdQVPb", "type": "artist"}], "album_type": "album", "release_date_precision": "day", "release_date": "2007-12-28", "images": [{"height": 640, "width": 640, "url": "https://i.scdn.co/image/00d97c99f9fb5872e9a44f06ae7e20fd011de125"}, {"height": 300, "width": 300, "url": "https://i.scdn.co/image/34c390dd70fca5ba873ec7bc27c0f15888e77f12"}, {"height": 64, "width": 64, "url": "https://i.scdn.co/image/c09778786823ad81376668f9187cb52d765ad77c"}], "type": "album"}, "duration_ms": 318186, "track_number": 4, "popularity": 64, "external_ids": {"isrc": "GBSTK0700004"}, "preview_url": "https://p.scdn.co/mp3-preview/eb168dd71ed9050c65254d04b3825e880fd0845f?cid=8cf3536e2878430ba6f2ae0755ddcfcf", "type": "track"}, {"explicit": false, "external_urls": {"spotify": "https://open.spotify.com/track/2nTsKOXIVGDf2iPeVQO2Gm"}, "disc_number": 1, "is_local": false, "available_markets": ["AD", "AR", "AT", "AU", "BE", "BG", "BO", "BR", "CA", "CH", "CL", "CO", "CR", "CY", "CZ", "DE", "DK", "DO", "EC", "EE", "ES", "FI", "FR", "GB", "GR", "GT", "HK", "HN", "HU", "ID", "IE", "IL", "IS", "IT", "JP", "LI", "LT", "LU", "LV", "MC", "MT", "MX", "MY", "NI", "NL", "NO", "NZ", "PA", "PE", "PH", "PL", "PT", "PY", "RO", "SE", "SG", "SK", "SV", "TH", "TR", "TW", "US", "UY", "VN", "ZA"], "uri": "spotify:track:2nTsKOXIVGDf2iPeVQO2Gm", "href": "https://api.spotify.com/v1/tracks/2nTsKOXIVGDf2iPeVQO2Gm", "name": "Paranoid Android", "id": "2nTsKOXIVGDf2iPeVQO2Gm", "artists": [{"external_urls": {"spotify": "https://open.spotify.com/artist/4Z8W4fKeB5YxbusRsdQVPb"}, "uri": "spotify:artist:4Z8W4fKeB5YxbusRsdQVPb", "href": "https://api.spotify.com/v1/artists/4Z8W4fKeB5YxbusRsdQVPb", "name": "Radiohead", "id": "4Z8W4fKeB5YxbusRsdQVPb", "type": "artist"}], "album": {"external_urls": {"spotify": "https://open.spotify.com/album/7dxKtc08dYeRVHt3p9CZJn"}, "total_tracks": 12, "available_markets": ["AD", "AR", "AT", "AU", "BE", "BG", "BO", "BR", "CA", "CH", "CL", "CO", "CR", "CY", "CZ", "DE", "DK", "DO", "EC", "EE", "ES", "FI", "FR", "GB", "GR", "GT", "HK", "HN", "HU", "ID", "IE", "IL", "IS", "IT", "JP", "LI", "LT", "LU", "LV", "MC", "MT", "MX", "MY", "NI", "NL", "NO", "NZ", "PA", "PE", "PH", "PL", "PT", "PY", "RO", "SE", "SG", "SK", "SV", "TH", "TR", "TW", "US", "UY", "VN", "ZA"], "uri": "spotify:album:7dxKtc08dYeRVHt3p9CZJn", "href": "https://api.spotify.com/v1/albums/7dxKtc08dYeRVHt3p9CZJn", "name": "OK Computer", "id": "7dxKtc08dYeRVHt3p9CZJn", "artists": [{"external_urls": {"spotify": "https://open.spotify.com/artist/4Z8W4fKeB5YxbusRsdQVPb"}, "uri": "spotify:artist:4Z8W4fKeB5YxbusRsdQVPb", "href": "https://api.spotify.com/v1/artists/4Z8W4fKeB5YxbusRsdQVPb", "name": "Radiohead", "id": "4Z8W4fKeB5YxbusRsdQVPb", "type": "artist"}], "album_type": "album", "release_date_precision": "day", "release_date": "1997-05-28", "images": [{"height": 640, "width": 640, "url": "https://i.scdn.co/image/f89c1ecdd0cc5a23d5ad7303d4ae231d197dde98"}, {"height": 300, "width": 300, "url": "https://i.scdn.co/image/1b898f0b8e3ce499d0fc629a1918c144d982e475"}, {"height": 64, "width": 64, "url": "https://i.scdn.co/image/faf295a70a6531826a8c25d33aad7d2cd9c75c7a"}], "type": "album"}, "duration_ms": 387213, "track_number": 2, "popularity": 65, "external_ids": {"isrc": "GBAYE9701376"}, "preview_url": "https://p.scdn.co/mp3-preview/d68bd7fa4f0bd86ec2ebbd7ac73c2716a00a3486?cid=8cf3536e2878430ba6f2ae0755ddcfcf", "type": "track"}, {"explicit": false, "external_urls": {"spotify": "https://open.spotify.com/track/5AiNZnMDCWwujIENPj9PV9"}, "disc_number": 1, "is_local": false, "available_markets": ["AD", "AR", "AT", "AU", "BE", "BG", "BO", "BR", "CA", "CH", "CL", "CO", "CR", "CY", "CZ", "DE", "DK", "DO", "EC", "EE", "ES", "FI", "FR", "GB", "GR", "GT", "HK", "HN", "HU", "ID", "IE", "IL", "IS", "IT", "JP", "LI", "LT", "LU", "LV", "MC", "MT", "MX", "MY", "NI", "NL", "NO", "NZ", "PA", "PE", "PH", "PL", "PT", "PY", "RO", "SE", "SG", "SK", "SV", "TH", "TR", "TW", "US", "UY", "VN", "ZA"], "uri": "spotify:track:5AiNZnMDCWwujIENPj9PV9", "href": "https://api.spotify.com/v1/tracks/5AiNZnMDCWwujIENPj9PV9", "name": "Everything In Its Right Place", "id": "5AiNZnMDCWwujIENPj9PV9", "artists": [{"external_urls": {"spotify": "https://open.spotify.com/artist/4Z8W4fKeB5YxbusRsdQVPb"}, "uri": "spotify:artist:4Z8W4fKeB5YxbusRsdQVPb", "href": "https://api.spotify.com/v1/artists/4Z8W4fKeB5YxbusRsdQVPb", "name": "Radiohead", "id": "4Z8W4fKeB5YxbusRsdQVPb", "type": "artist"}], "album": {"external_urls": {"spotify": "https://open.spotify.com/album/19RUXBFyM4PpmrLRdtqWbp"}, "total_tracks": 11, "available_markets": ["AD", "AR", "AT", "AU", "BE", "BG", "BO", "BR", "CA", "CH", "CL", "CO", "CR", "CY", "CZ", "DE", "DK", "DO", "EC", "EE", "ES", "FI", "FR", "GB", "GR", "GT", "HK", "HN", "HU", "ID", "IE", "IL", "IS", "IT", "JP", "LI", "LT", "LU", "LV", "MC", "MT", "MX", "MY", "NI", "NL", "NO", "NZ", "PA", "PE", "PH", "PL", "PT", "PY", "RO", "SE", "SG", "SK", "SV", "TH", "TR", "TW", "US", "UY", "VN", "ZA"], "uri": "spotify:album:19RUXBFyM4PpmrLRdtqWbp", "href": "https://api.spotify.com/v1/albums/19RUXBFyM4PpmrLRdtqWbp", "name": "Kid A", "id": "19RUXBFyM4PpmrLRdtqWbp", "artists": [{"external_urls": {"spotify": "https://open.spotify.com/artist/4Z8W4fKeB5YxbusRsdQVPb"}, "uri": "spotify:artist:4Z8W4fKeB5YxbusRsdQVPb", "href": "https://api.spotify.com/v1/artists/4Z8W4fKeB5YxbusRsdQVPb", "name": "Radiohead", "id": "4Z8W4fKeB5YxbusRsdQVPb", "type": "artist"}], "album_type": "album", "release_date_precision": "day", "release_date": "2000-10-01", "images": [{"height": 640, "width": 640, "url": "https://i.scdn.co/image/0a6b1c237ab9f7d7da0a04e3e5dba0f022daa20c"}, {"height": 300, "width": 300, "url": "https://i.scdn.co/image/c652dc46f7eb187075e19c0cc921421c3312e641"}, {"height": 64, "width": 64, "url": "https://i.scdn.co/image/d6ad92fcca2e4c7315bc240197e70ebaa7490cb0"}], "type": "album"}, "duration_ms": 251426, "track_number": 1, "popularity": 62, "external_ids": {"isrc": "GBAYE0000810"}, "preview_url": "https://p.scdn.co/mp3-preview/54f1a88d16e6a4be7f82fccc62f8047652686b16?cid=8cf3536e2878430ba6f2ae0755ddcfcf", "type": "track"}, {"explicit": false, "external_urls": {"spotify": "https://open.spotify.com/track/56Z7hbyMrndw1naxb6I5Oi"}, "disc_number": 1, "is_local": false, "available_markets": ["AD", "AR", "AT", "AU", "BE", "BG", "BO", "BR", "CA", "CH", "CL", "CO", "CR", "CY", "CZ", "DE", "DK", "DO", "EC", "EE", "ES", "FI", "FR", "GB", "GR", "GT", "HK", "HN", "HU", "ID", "IE", "IL", "IS", "IT", "JP", "LI", "LT", "LU", "LV", "MC", "MT", "MX", "MY", "NI", "NL", "NO", "NZ", "PA", "PE", "PH", "PL", "PT", "PY", "RO", "SE", "SG", "SK", "SV", "TH", "TR", "TW", "US", "UY", "VN", "ZA"], "uri": "spotify:track:56Z7hbyMrndw1naxb6I5Oi", "href": "https://api.spotify.com/v1/tracks/56Z7hbyMrndw1naxb6I5Oi", "name": "Reckoner", "id": "56Z7hbyMrndw1naxb6I5Oi", "artists": [{"external_urls": {"spotify": "https://open.spotify.com/artist/4Z8W4fKeB5YxbusRsdQVPb"}, "uri": "spotify:artist:4Z8W4fKeB5YxbusRsdQVPb", "href": "https://api.spotify.com/v1/artists/4Z8W4fKeB5YxbusRsdQVPb", "name": "Radiohead", "id": "4Z8W4fKeB5YxbusRsdQVPb", "type": "artist"}], "album": {"external_urls": {"spotify": "https://open.spotify.com/album/7eyQXxuf2nGj9d2367Gi5f"}, "total_tracks": 10, "available_markets": ["AD", "AR", "AT", "AU", "BE", "BG", "BO", "BR", "CA", "CH", "CL", "CO", "CR", "CY", "CZ", "DE", "DK", "DO", "EC", "EE", "ES", "FI", "FR", "GB", "GR", "GT", "HK", "HN", "HU", "ID", "IE", "IL", "IS", "IT", "JP", "LI", "LT", "LU", "LV", "MC", "MT", "MX", "MY", "NI", "NL", "NO", "NZ", "PA", "PE", "PH", "PL", "PT", "PY", "RO", "SE", "SG", "SK", "SV", "TH", "TR", "TW", "US", "UY", "VN", "ZA"], "uri": "spotify:album:7eyQXxuf2nGj9d2367Gi5f", "href": "https://api.spotify.com/v1/albums/7eyQXxuf2nGj9d2367Gi5f", "name": "In Rainbows", "id": "7eyQXxuf2nGj9d2367Gi5f", "artists": [{"external_urls": {"spotify": "https://open.spotify.com/artist/4Z8W4fKeB5YxbusRsdQVPb"}, "uri": "spotify:artist:4Z8W4fKeB5YxbusRsdQVPb", "href": "https://api.spotify.com/v1/artists/4Z8W4fKeB5YxbusRsdQVPb", "name": "Radiohead", "id": "4Z8W4fKeB5YxbusRsdQVPb", "type": "artist"}], "album_type": "album", "release_date_precision": "day", "release_date": "2007-12-28", "images": [{"height": 640, "width": 640, "url": "https://i.scdn.co/image/00d97c99f9fb5872e9a44f06ae7e20fd011de125"}, {"height": 300, "width": 300, "url": "https://i.scdn.co/image/34c390dd70fca5ba873ec7bc27c0f15888e77f12"}, {"height": 64, "width": 64, "url": "https://i.scdn.co/image/c09778786823ad81376668f9187cb52d765ad77c"}], "type": "album"}, "duration_ms": 290213, "track_number": 7, "popularity": 62, "external_ids": {"isrc": "GBSTK0700007"}, "preview_url": "https://p.scdn.co/mp3-preview/ea5618eca9b969c806fff7e34df1c55f3ef1284b?cid=8cf3536e2878430ba6f2ae0755ddcfcf", "type": "track"}, {"explicit": false, "external_urls": {"spotify": "https://open.spotify.com/track/6dsq7Nt5mIFzvm5kIYNORy"}, "disc_number": 1, "is_local": false, "available_markets": ["AD", "AR", "AT", "AU", "BE", "BG", "BO", "BR", "CA", "CH", "CL", "CO", "CR", "CY", "CZ", "DE", "DK", "DO", "EC", "EE", "ES", "FI", "FR", "GB", "GR", "GT", "HK", "HN", "HU", "ID", "IE", "IL", "IS", "IT", "JP", "LI", "LT", "LU", "LV", "MC", "MT", "MX", "MY", "NI", "NL", "NO", "NZ", "PA", "PE", "PH", "PL", "PT", "PY", "RO", "SE", "SG", "SK", "SV", "TH", "TR", "TW", "US", "UY", "VN", "ZA"], "uri": "spotify:track:6dsq7Nt5mIFzvm5kIYNORy", "href": "https://api.spotify.com/v1/tracks/6dsq7Nt5mIFzvm5kIYNORy", "name": "15 Step", "id": "6dsq7Nt5mIFzvm5kIYNORy", "artists": [{"external_urls": {"spotify": "https://open.spotify.com/artist/4Z8W4fKeB5YxbusRsdQVPb"}, "uri": "spotify:artist:4Z8W4fKeB5YxbusRsdQVPb", "href": "https://api.spotify.com/v1/artists/4Z8W4fKeB5YxbusRsdQVPb", "name": "Radiohead", "id": "4Z8W4fKeB5YxbusRsdQVPb", "type": "artist"}], "album": {"external_urls": {"spotify": "https://open.spotify.com/album/7eyQXxuf2nGj9d2367Gi5f"}, "total_tracks": 10, "available_markets": ["AD", "AR", "AT", "AU", "BE", "BG", "BO", "BR", "CA", "CH", "CL", "CO", "CR", "CY", "CZ", "DE", "DK", "DO", "EC", "EE", "ES", "FI", "FR", "GB", "GR", "GT", "HK", "HN", "HU", "ID", "IE", "IL", "IS", "IT", "JP", "LI", "LT", "LU", "LV", "MC", "MT", "MX", "MY", "NI", "NL", "NO", "NZ", "PA", "PE", "PH", "PL", "PT", "PY", "RO", "SE", "SG", "SK", "SV", "TH", "TR", "TW", "US", "UY", "VN", "ZA"], "uri": "spotify:album:7eyQXxuf2nGj9d2367Gi5f", "href": "https://api.spotify.com/v1/albums/7eyQXxuf2nGj9d2367Gi5f", "name": "In Rainbows", "id": "7eyQXxuf2nGj9d2367Gi5f", "artists": [{"external_urls": {"spotify": "https://open.spotify.com/artist/4Z8W4fKeB5YxbusRsdQVPb"}, "uri": "spotify:artist:4Z8W4fKeB5YxbusRsdQVPb", "href": "https://api.spotify.com/v1/artists/4Z8W4fKeB5YxbusRsdQVPb", "name": "Radiohead", "id": "4Z8W4fKeB5YxbusRsdQVPb", "type": "artist"}], "album_type": "album", "release_date_precision": "day", "release_date": "2007-12-28", "images": [{"height": 640, "width": 640, "url": "https://i.scdn.co/image/00d97c99f9fb5872e9a44f06ae7e20fd011de125"}, {"height": 300, "width": 300, "url": "https://i.scdn.co/image/34c390dd70fca5ba873ec7bc27c0f15888e77f12"}, {"height": 64, "width": 64, "url": "https://i.scdn.co/image/c09778786823ad81376668f9187cb52d765ad77c"}], "type": "album"}, "duration_ms": 237293, "track_number": 1, "popularity": 60, "external_ids": {"isrc": "GBSTK0700001"}, "preview_url": "https://p.scdn.co/mp3-preview/18f2a704083cc69612e54165b0afeba18aa9462e?cid=8cf3536e2878430ba6f2ae0755ddcfcf", "type": "track"}], "previous": null, "total": 1418, "limit": 10, "next": "https://api.spotify.com/v1/search?query=Radiohead&type=track&offset=10&limit=10"}}